%YAML 1.1
%TAG !u! tag:unity3d.com,2011:
--- !u!74 &7400000
AnimationClip:
  m_ObjectHideFlags: 0
  m_PrefabParentObject: {fileID: 0}
  m_PrefabInternal: {fileID: 0}
  m_Name: in
  serializedVersion: 6
  m_Legacy: 0
  m_Compressed: 0
  m_UseHighQualityCurve: 1
  m_RotationCurves: []
  m_CompressedRotationCurves: []
  m_EulerCurves: []
  m_PositionCurves: []
  m_ScaleCurves: []
  m_FloatCurves: []
  m_PPtrCurves:
  - curve:
    - time: 0
      value: {fileID: 21300000, guid: db6bb41dc7a4445f687636f35aa4ea6d, type: 3}
    - time: 0.033333335
      value: {fileID: 21300002, guid: db6bb41dc7a4445f687636f35aa4ea6d, type: 3}
    - time: 0.06666667
      value: {fileID: 21300004, guid: db6bb41dc7a4445f687636f35aa4ea6d, type: 3}
    - time: 0.1
      value: {fileID: 21300006, guid: db6bb41dc7a4445f687636f35aa4ea6d, type: 3}
    - time: 0.13333334
      value: {fileID: 21300008, guid: db6bb41dc7a4445f687636f35aa4ea6d, type: 3}
    - time: 0.16666667
      value: {fileID: 21300010, guid: db6bb41dc7a4445f687636f35aa4ea6d, type: 3}
    - time: 0.2
      value: {fileID: 21300012, guid: db6bb41dc7a4445f687636f35aa4ea6d, type: 3}
    attribute: m_Sprite
    path: 
    classID: 212
    script: {fileID: 0}
  m_SampleRate: 30
  m_WrapMode: 0
  m_Bounds:
    m_Center: {x: 0, y: 0, z: 0}
    m_Extent: {x: 0, y: 0, z: 0}
  m_ClipBindingConstant:
    genericBindings:
    - serializedVersion: 2
      path: 0
      attribute: 0
      script: {fileID: 0}
      typeID: 212
      customType: 23
      isPPtrCurve: 1
    pptrCurveMapping:
    - {fileID: 21300000, guid: db6bb41dc7a4445f687636f35aa4ea6d, type: 3}
    - {fileID: 21300002, guid: db6bb41dc7a4445f687636f35aa4ea6d, type: 3}
    - {fileID: 21300004, guid: db6bb41dc7a4445f687636f35aa4ea6d, type: 3}
    - {fileID: 21300006, guid: db6bb41dc7a4445f687636f35aa4ea6d, type: 3}
    - {fileID: 21300008, guid: db6bb41dc7a4445f687636f35aa4ea6d, type: 3}
    - {fileID: 21300010, guid: db6bb41dc7a4445f687636f35aa4ea6d, type: 3}
    - {fileID: 21300012, guid: db6bb41dc7a4445f687636f35aa4ea6d, type: 3}
  m_AnimationClipSettings:
    serializedVersion: 2
    m_AdditiveReferencePoseClip: {fileID: 0}
    m_AdditiveReferencePoseTime: 0
    m_StartTime: 0
    m_StopTime: 0.23333333
    m_OrientationOffsetY: 0
    m_Level: 0
    m_CycleOffset: 0
    m_HasAdditiveReferencePose: 0
    m_LoopTime: 1
    m_LoopBlend: 0
    m_LoopBlendOrientation: 0
    m_LoopBlendPositionY: 0
    m_LoopBlendPositionXZ: 0
    m_KeepOriginalOrientation: 0
    m_KeepOriginalPositionY: 1
    m_KeepOriginalPositionXZ: 0
    m_HeightFromFeet: 0
    m_Mirror: 0
  m_EditorCurves: []
  m_EulerEditorCurves: []
  m_HasGenericRootTransform: 0
  m_HasMotionFloatCurves: 0
  m_GenerateMotionCurves: 0
  m_Events:
  - time: 0.23333333
    functionName: onAppeared
    data: 
    objectReferenceParameter: {fileID: 0}
    floatParameter: 0
    intParameter: 0
    messageOptions: 0
